<?xml version="1.0" encoding="utf-8"?>
<!-- Generator: Adobe Illustrator 15.0.0, SVG Export Plug-In  -->
<!DOCTYPE svg PUBLIC "-//W3C//DTD SVG 1.1//EN" "http://www.w3.org/Graphics/SVG/1.1/DTD/svg11.dtd" [
	<!ENTITY ns_flows "http://ns.adobe.com/Flows/1.0/">
]>
<svg version="1.1"
	 xmlns="http://www.w3.org/2000/svg" xmlns:xlink="http://www.w3.org/1999/xlink" xmlns:a="http://ns.adobe.com/AdobeSVGViewerExtensions/3.0/"
	 x="0px" y="0px" width="461px" height="97px" viewBox="-1.215 -3.986 461 97"
	 overflow="visible" enable-background="new -1.215 -3.986 461 97" xml:space="preserve">
<defs>
</defs>
<path fill="#FFFFFF" d="M44.231,9.212H27.407v41.794H16.901V9.212H0V0.762h44.231V9.212z"/>
<path fill="#FFFFFF" d="M91.584,42.557v8.45h-38.75V0.762h37.685v8.451H63.34v12.485h21.393v8.07H63.34v12.79H91.584z"/>
<path fill="#FFFFFF" d="M129.573,38.75h-19.338l-4.111,12.256H95.391l18.347-50.245h12.562l18.348,50.245H133.76L129.573,38.75z
	 M126.984,30.985l-4.721-14.16l-2.283-7.613h-0.152l-2.132,7.46l-4.872,14.312H126.984z"/>
<path fill="#FFFFFF" d="M206.769,51.007h-9.44V24.818l0.456-14.692h-0.152L183.7,51.007h-8.603l-13.855-40.881h-0.151l0.531,14.692
	v26.188h-9.516V0.762h15.226l9.061,27.406l3.197,11.343h0.151l3.274-11.267l8.982-27.483h14.771V51.007z"/>
<path fill="#FFFFFF" d="M250.237,2.322c3.351,1.549,6.293,3.997,8.831,7.347l-7.231,7.08c-1.32-2.74-3.071-4.783-5.254-6.128
	s-4.948-2.018-8.297-2.018c-3.047,0-5.395,0.572-7.043,1.713c-1.649,1.142-2.474,2.652-2.474,4.529c0,1.727,0.836,3.097,2.512,4.111
	c1.675,1.016,4.693,1.903,9.061,2.665c4.567,0.863,8.195,1.929,10.886,3.197c2.689,1.27,4.655,2.855,5.899,4.758
	c1.244,1.903,1.865,4.277,1.865,7.118c0,3.097-0.876,5.774-2.625,8.032c-1.752,2.259-4.188,3.997-7.31,5.215
	c-3.12,1.218-6.688,1.827-10.695,1.827c-5.533,0-10.063-0.773-13.591-2.322c-3.527-1.547-6.382-3.894-8.564-7.042l6.243-7.46
	c1.877,3.096,4.035,5.241,6.472,6.433c2.436,1.194,5.455,1.79,9.059,1.79c3.248,0,5.722-0.506,7.423-1.522
	c1.7-1.015,2.551-2.462,2.551-4.339c0-1.371-0.8-2.513-2.398-3.427c-1.598-0.913-4.453-1.775-8.564-2.588
	c-4.721-0.963-8.489-2.105-11.306-3.426c-2.817-1.319-4.861-2.943-6.128-4.872c-1.269-1.929-1.903-4.313-1.903-7.156
	c0-2.994,0.812-5.697,2.436-8.107c1.624-2.411,3.998-4.302,7.119-5.672C230.329,0.686,233.995,0,238.21,0
	C242.879,0,246.889,0.775,250.237,2.322z"/>
<path fill="#FFFFFF" d="M307.107,9.212h-16.826v41.794h-10.506V9.212h-16.9V0.762h44.232V9.212z"/>
<path fill="#FFFFFF" d="M354.459,42.557v8.45h-38.751V0.762h37.685v8.451h-27.179v12.485h21.394v8.07h-21.394v12.79H354.459z"/>
<path fill="#FFFFFF" d="M383.693,31.747h-9.44v19.26h-10.354V0.762h22.153c5.735,0,10.214,1.358,13.438,4.072
	c3.223,2.716,4.834,6.536,4.834,11.458c0,3.604-0.889,6.623-2.663,9.06c-1.778,2.436-4.315,4.187-7.613,5.253l13.245,20.402h-11.8
	L383.693,31.747z M374.253,23.752h10.43c3.045,0,5.29-0.595,6.737-1.789c1.445-1.191,2.169-3.032,2.169-5.519
	c0-2.486-0.724-4.326-2.169-5.52c-1.447-1.192-3.692-1.79-6.737-1.79h-10.43V23.752z"/>
<path fill="#FFFFFF" d="M446.042,2.322c3.35,1.549,6.293,3.997,8.831,7.347l-7.233,7.08c-1.319-2.74-3.071-4.783-5.252-6.128
	c-2.183-1.345-4.948-2.018-8.299-2.018c-3.044,0-5.392,0.572-7.041,1.713c-1.65,1.142-2.475,2.652-2.475,4.529
	c0,1.727,0.838,3.097,2.513,4.111c1.675,1.016,4.693,1.903,9.059,2.665c4.568,0.863,8.196,1.929,10.888,3.197
	c2.689,1.27,4.655,2.855,5.899,4.758c1.242,1.903,1.865,4.277,1.865,7.118c0,3.097-0.875,5.774-2.627,8.032
	c-1.751,2.259-4.187,3.997-7.307,5.215c-3.123,1.218-6.688,1.827-10.698,1.827c-5.531,0-10.062-0.773-13.589-2.322
	c-3.527-1.547-6.382-3.894-8.564-7.042l6.243-7.46c1.877,3.096,4.035,5.241,6.47,6.433c2.438,1.194,5.456,1.79,9.061,1.79
	c3.248,0,5.722-0.506,7.423-1.522c1.7-1.015,2.55-2.462,2.55-4.339c0-1.371-0.798-2.513-2.397-3.427
	c-1.6-0.913-4.454-1.775-8.564-2.588c-4.721-0.963-8.489-2.105-11.306-3.426c-2.816-1.319-4.86-2.943-6.128-4.872
	c-1.271-1.929-1.903-4.313-1.903-7.156c0-2.994,0.812-5.697,2.436-8.107c1.624-2.411,3.996-4.302,7.119-5.672
	c3.121-1.371,6.787-2.056,11-2.056C438.683,0,442.691,0.775,446.042,2.322z"/>
<path fill="#FFFFFF" d="M38.504,89.257v3.552H16.809V61.545h3.79v27.712H38.504z"/>
<path fill="#FFFFFF" d="M89.19,63.038c2.178,1.311,3.859,3.174,5.044,5.589c1.185,2.417,1.776,5.267,1.776,8.551
	s-0.592,6.135-1.776,8.551c-1.185,2.415-2.866,4.279-5.044,5.589c-2.18,1.312-4.738,1.966-7.675,1.966
	c-2.937,0-5.495-0.654-7.674-1.966c-2.179-1.31-3.86-3.174-5.045-5.589c-1.185-2.416-1.776-5.267-1.776-8.551
	s0.591-6.134,1.776-8.551c1.185-2.415,2.866-4.278,5.045-5.589s4.737-1.966,7.674-1.966C84.453,61.072,87.011,61.727,89.19,63.038z
	 M73.818,67.964C71.939,70.191,71,73.262,71,77.177c0,3.916,0.939,6.987,2.818,9.213c1.879,2.228,4.445,3.34,7.698,3.34
	c3.252,0,5.818-1.112,7.697-3.34c1.879-2.226,2.818-5.297,2.818-9.213c0-3.915-0.939-6.986-2.818-9.213
	c-1.879-2.228-4.445-3.34-7.697-3.34C78.263,64.625,75.697,65.737,73.818,67.964z"/>
<path fill="#FFFFFF" d="M149.585,91.033c-2.242,1.5-4.831,2.25-7.769,2.25c-2.937,0-5.494-0.654-7.674-1.966
	c-2.179-1.31-3.86-3.174-5.045-5.589c-1.184-2.416-1.775-5.267-1.775-8.551c0-3.252,0.592-6.095,1.775-8.526
	c1.185-2.432,2.866-4.303,5.045-5.613c2.18-1.311,4.705-1.966,7.579-1.966c3,0,5.519,0.615,7.556,1.847s3.561,3.049,4.572,5.448
	l-3.742,1.753c-0.696-1.831-1.706-3.205-3.033-4.121c-1.325-0.916-3.016-1.374-5.068-1.374c-2.147,0-4.026,0.497-5.637,1.492
	c-1.61,0.994-2.858,2.439-3.742,4.334c-0.884,1.896-1.326,4.138-1.326,6.727c0,3.916,0.939,6.987,2.818,9.213
	c1.879,2.228,4.444,3.34,7.697,3.34c2.116,0,3.947-0.536,5.495-1.61c1.547-1.073,2.653-2.652,3.316-4.737l3.79,1.421
	C153.438,87.457,151.827,89.534,149.585,91.033z"/>
<path fill="#FFFFFF" d="M204.154,84.141h-14.163l-3.315,8.668h-3.979l12.173-31.264h4.5l12.127,31.264h-4.026L204.154,84.141z
	 M202.782,80.588l-4.217-11.085l-1.469-4.357h-0.094l-1.375,4.215l-4.263,11.228H202.782z"/>
<path fill="#FFFFFF" d="M264.409,89.257v3.552h-21.695V61.545h3.788v27.712H264.409z"/>
<path fill="#FFFFFF" d="M349.603,62.185c1.469,0.742,2.581,1.729,3.339,2.961c0.759,1.231,1.137,2.59,1.137,4.073
	c0,1.453-0.268,2.764-0.805,3.932c-0.536,1.169-1.255,2.093-2.155,2.771c-0.9,0.681-1.87,1.019-2.913,1.019v0.096
	c1.989,0,3.584,0.719,4.785,2.155c1.199,1.437,1.799,3.182,1.799,5.234c0,1.674-0.449,3.189-1.35,4.548
	c-0.9,1.357-2.188,2.415-3.861,3.173s-3.6,1.137-5.779,1.137c-5.211,0-8.811-2.494-10.8-7.483l3.506-1.849
	c0.631,1.927,1.507,3.371,2.629,4.335c1.12,0.964,2.771,1.444,4.949,1.444c2.116,0,3.773-0.528,4.975-1.587
	c1.199-1.057,1.801-2.423,1.801-4.097c0-1.927-0.576-3.276-1.729-4.051c-1.153-0.772-2.978-1.16-5.472-1.16h-1.231v-3.553h1.231
	c4.326,0,6.489-1.769,6.489-5.306c0-1.769-0.497-3.103-1.492-4.003c-0.994-0.899-2.424-1.35-4.287-1.35
	c-1.83,0-3.291,0.419-4.381,1.255c-1.089,0.838-1.839,2.014-2.251,3.529l-3.552-1.657c0.759-2.053,2.044-3.68,3.861-4.88
	c1.815-1.199,3.907-1.8,6.276-1.8C346.373,61.072,348.134,61.444,349.603,62.185z"/>
<path fill="#FFFFFF" d="M397.564,61.545v31.264h-3.79V69.882c0-0.663,0.031-1.878,0.094-3.647c-1.073,1.042-2.319,1.95-3.742,2.724
	c-1.421,0.774-2.873,1.335-4.356,1.683l-0.996-3.459c0.758-0.095,1.784-0.449,3.079-1.065c1.296-0.616,2.543-1.342,3.742-2.18
	c1.2-0.836,2.085-1.634,2.653-2.392H397.564z"/>
<path fill="#FFFFFF" d="M449.15,75.543c1.799,1.847,2.699,4.286,2.699,7.318c0,3.253-0.948,5.803-2.842,7.649
	c-1.895,1.849-4.517,2.771-7.864,2.771c-2.81,0-5.092-0.607-6.845-1.823s-3.103-2.991-4.051-5.329l3.696-1.942
	c0.536,1.832,1.333,3.214,2.392,4.145c1.058,0.933,2.612,1.397,4.666,1.397c2.147,0,3.836-0.584,5.068-1.753
	c1.231-1.167,1.848-2.777,1.848-4.831c0-2.21-0.568-3.9-1.705-5.068s-2.779-1.753-4.927-1.753c-3.253,0-5.574,1.012-6.964,3.032
	h-3.362l1.894-17.812h17.575v3.553h-14.354l-1.23,9.853l-0.048,0.427h0.048c1.673-1.736,4.058-2.605,7.151-2.605
	C444.965,72.772,447.35,73.696,449.15,75.543z"/>
</svg>
